{
    "$schema": "https://go.kicad.org/pcm/schemas/v1",
    "name": "Black-White Theme",
    "description": "Designed for printing",
    "description_full": "Designed for printing",
    "identifier": "com.github.pointhi.kicad-color-schemes.black-white",
    "type": "colortheme",
    "author": {
        "name": "Thomas Pointhuber",
        "contact": {
            "web": "https://github.com/pointhi/kicad-color-schemes/"
        }
    },
    "maintainer": {
        "name": "Thomas Pointhuber",
        "contact": {
            "web": "https://github.com/pointhi/kicad-color-schemes/"
        }
    },
    "license": "CC0-1.0",
    "resources": {
        "Github": "https://github.com/pointhi/kicad-color-schemes"
    },
    "versions": [
        {
            "version": "1.0",
            "status": "stable",
            "kicad_version": "5.99",
            "download_sha256": "40ae0995aae5748311f10c0fd34f456859598d5b55990b63c8723f6c34fbc8e6",
            "download_size": 3962,
            "download_url": "https://github.com/pointhi/kicad-color-schemes/releases/download/2021-11-06/com.github.pointhi.kicad-color-schemes.black-white_v1.0_pcm.zip",
            "install_size": 5144
        },
        {
            "version": "1.1",
            "status": "stable",
            "kicad_version": "5.99",
            "download_sha256": "82fca492b81427fd3d5b5e98ae145f81370f5aa137fd41aa0ef0826f4c192e07",
            "download_size": 3971,
            "download_url": "https://github.com/pointhi/kicad-color-schemes/releases/download/2021-11-13/com.github.pointhi.kicad-color-schemes.black-white_v1.1_pcm.zip",
            "install_size": 5161
        }
    ]
}
