{
    "$schema": "https://go.kicad.org/pcm/schemas/v1",
    "name": "Eagle Dark Theme",
    "description": "Eagle CAD inspired color theme",
    "description_full": "Eagle CAD inspired color theme",
    "identifier": "com.github.pointhi.kicad-color-schemes.eagle-dark",
    "type": "colortheme",
    "author": {
        "name": "Rachel Mant",
        "contact": {
            "web": "https://github.com/DX-MON"
        }
    },
    "maintainer": {
        "name": "Thomas Pointhuber",
        "contact": {
            "web": "https://github.com/pointhi/kicad-color-schemes/"
        }
    },
    "license": "CC0-1.0",
    "resources": {
        "Github": "https://github.com/pointhi/kicad-color-schemes"
    },
    "versions": [
        {
            "version": "1.0",
            "status": "stable",
            "kicad_version": "5.99",
            "download_sha256": "f294c063005ab166979e65b13c2b21f9286336672ea8142b94150fc15372a3d6",
            "download_size": 6423,
            "download_url": "https://github.com/pointhi/kicad-color-schemes/releases/download/2021-11-13/com.github.pointhi.kicad-color-schemes.eagle-dark_v1.0_pcm.zip",
            "install_size": 10196
        }
    ]
}
